{
"ev": [
    {
        "_id": "1",
        "Battery Size kW": "60",
        "Battery Level %": "10",
        "Min kW": "7.4",
        "Start Time": "21:10",
        "End Time": "21:15",
        "Total kWh": "00.00"
    },
    {
        "_id": "2",
        "Battery Size kW": "40",
        "Battery Level %": "0",
        "Min kW": "7.4",
        "Start Time": "19:32",
        "End Time": "00:00",
        "Total kWh": "00.00"
    },
    {
        "_id": "3",
        "Battery Size kW": "40",
        "Battery Level %": "10",
        "Min kW": "7.4",
        "Start Time": "20:26",
        "End Time": "21:20",
        "Total kWh": "00.00"
    }
]
}